<?xml version="1.0" encoding="UTF-8"?>
<svg width="58px" height="58px" viewBox="0 0 58 58" version="1.1" xmlns="http://www.w3.org/2000/svg" xmlns:xlink="http://www.w3.org/1999/xlink">
    <!-- Generator: Sketch 43.2 (39069) - http://www.bohemiancoding.com/sketch -->
    <title>time</title>
    <desc>Created with Sketch.</desc>
    <defs>
        <path d="M21.3437175,0 C9.55602168,0 0,9.55549522 0,21.3426421 C0,33.1306492 9.55602168,42.6857143 21.3437175,42.6857143 C33.1305529,42.6857143 42.6857143,33.1302191 42.6857143,21.3426421 C42.6857143,9.55549522 33.1309831,0 21.3437175,0 Z" id="path-1"></path>
    </defs>
    <g id="Page-1" stroke="none" stroke-width="1" fill="none" fill-rule="evenodd">
        <g id="паркоматика-Large-Devices-(-≥-1200px-)-Copy" transform="translate(-293.000000, -2397.000000)">
            <g id="part6-" transform="translate(0.000000, 1768.000000)">
                <g id="ill" transform="translate(159.000000, 132.000000)">
                    <g id="time" transform="translate(123.000000, 488.000000)">
                        <g id="time-control">
                            <g></g>
                            <g id="Group" transform="translate(20.157143, 17.785714)" fill-rule="nonzero">
                                <g id="Shape">
                                    <use fill="#C2C7FA" fill-rule="evenodd" xlink:href="#path-1"></use>
                                    <path stroke="#2F37A1" stroke-width="2.4" d="M21.3437175,1.2 C32.468065,1.2 41.4857143,10.2180606 41.4857143,21.3426421 C41.4857143,32.4674386 32.46785,41.4857143 21.3437175,41.4857143 C10.2185188,41.4857143 1.2,32.467663 1.2,21.3426421 C1.2,10.2182664 10.2187339,1.2 21.3437175,1.2 Z"></path>
                                </g>
                                <path d="M21.1048625,23.5576899 L32.3917335,18.3862287 C34.018058,17.6937996 32.9596067,15.4635779 31.251966,16.1788204 L21.6629063,20.2628426 L21.6629063,9.53462708 C21.6629063,7.85023726 18.9714286,7.92712688 18.9714286,9.53462708 L19.0116399,22.3849118 C19.0111931,23.3456097 20.1089622,24.0384613 21.1048625,23.5576899 Z" id="Shape" fill="#2F37A1"></path>
                            </g>
                            <path d="M15.4142857,39.1285714 C15.4142857,53.5353136 27.0932578,65.2142857 41.5,65.2142857 L41.5,65.2142857 C55.9067422,65.2142857 67.5857143,53.5353136 67.5857143,39.1285714 C67.5857143,24.7218292 55.9067422,13.0428571 41.5,13.0428571" id="Oval-13" stroke="#F34D47" stroke-width="2.376" stroke-linecap="round"></path>
                        </g>
                        <circle id="Oval-14" fill="#F34D47" cx="15.4142857" cy="39.1285714" r="3.55714286"></circle>
                        <circle id="Oval-14" fill="#F34D47" cx="41.5" cy="13.0428571" r="3.55714286"></circle>
                    </g>
                </g>
            </g>
        </g>
    </g>
</svg>