<?xml version="1.0" encoding="UTF-8"?>
<svg width="44px" height="42px" viewBox="0 0 44 42" version="1.1" xmlns="http://www.w3.org/2000/svg" xmlns:xlink="http://www.w3.org/1999/xlink">
    <!-- Generator: Sketch 43.2 (39069) - http://www.bohemiancoding.com/sketch -->
    <title>легкая установка</title>
    <desc>Created with Sketch.</desc>
    <defs></defs>
    <g id="Page-1" stroke="none" stroke-width="1" fill="none" fill-rule="evenodd">
        <g id="паркоматика-Large-Devices-(-≥-1200px-)-Copy" transform="translate(-310.000000, -1965.000000)" fill-rule="nonzero">
            <g id="part6-" transform="translate(0.000000, 1768.000000)">
                <g id="ill" transform="translate(159.000000, 132.000000)">
                    <g id="легкая-установка" transform="translate(141.643875, 55.216524)">
                        <g id="установка-легкая" transform="translate(10.803419, 10.803419)">
                            <path d="M22.7161586,15.6926632 C22.0518757,15.9461616 22.2070703,16.4682177 22.483576,17.4361968 C22.7638465,18.4008293 22.7998215,19.325722 22.1033284,20.0205419 C21.9665396,20.1422713 21.8335157,20.2619092 21.7046749,20.3886584 C21.695472,20.3970246 21.6908706,20.3970246 21.6816676,20.4032994 C20.9441797,21.0675823 20.0222152,20.9784814 19.0713871,20.6467582 C18.1205589,20.3125252 17.6077057,20.1284669 17.3178139,20.7768539 C17.0283405,21.4210578 17.2228566,20.9835011 16.7581096,22.0267768 C16.7526715,22.0372346 16.7497433,22.0439276 16.7443052,22.0568954 C16.2766299,23.0993343 16.471146,22.6626143 16.1850191,23.3047266 C15.8947091,23.9543686 16.3728422,24.21456 17.2554851,24.7023143 C18.1297618,25.1850489 18.8032477,25.8083371 18.810359,26.780081 C18.7986462,26.9628843 18.7936264,27.1469425 18.7932081,27.3310008 C18.7915349,27.3456418 18.7844235,27.3527531 18.7844235,27.3682307 C18.7346441,28.3583804 18.0184902,28.9477851 17.1103301,29.3853418 C16.2025883,29.8216435 15.7081409,30.0550628 15.962476,30.7180908 C16.2134645,31.3756807 16.042374,30.9280845 16.4510669,31.9977139 C16.4539951,32.0090084 16.4569233,32.0165381 16.4619431,32.0274142 C16.8677079,33.0978803 16.6978723,32.6490291 16.9492791,33.3053641 C17.2031959,33.9717386 17.7256703,33.8173807 18.6940677,33.5379468 C19.6578636,33.2597679 20.5794097,33.2233745 21.2759029,33.9161028 C21.3963774,34.0537282 21.5164335,34.1888437 21.6461109,34.3176845 C21.6544772,34.3273057 21.6536406,34.334417 21.6628435,34.3436199 C22.322525,35.0781797 22.2367706,36.0030724 21.9033742,36.9509723 C21.5703961,37.9030554 21.3875928,38.415072 22.0330516,38.7062187 C22.6785104,38.9927639 22.2409537,38.7974112 23.2842293,39.267178 C23.291759,39.2705245 23.2955238,39.2730344 23.3030535,39.2767993 C23.3064,39.2776359 23.3089099,39.2784725 23.3135113,39.2801458 C24.3559503,39.7474027 23.9192303,39.5495401 24.5638525,39.8394318 C25.2118211,40.127232 25.4711759,39.6503538 25.9597669,38.7677109 C26.4416649,37.8921793 27.0695545,37.2145103 28.0467365,37.2111638 C28.2241017,37.2224582 28.4031401,37.2291513 28.5805054,37.227478 C28.5997478,37.2299879 28.6064408,37.2387725 28.6269382,37.2387725 C29.6133231,37.2906435 30.205656,38.006379 30.6415394,38.9128659 C31.0786777,39.8201894 31.3112604,40.3133818 31.9751251,40.0615567 C32.632715,39.8088949 32.186792,39.9795671 33.2555848,39.5721291 C33.2622778,39.5704558 33.2660427,39.5687826 33.2727357,39.5662727 C33.2777555,39.5645994 33.281102,39.5637628 33.2844485,39.5612529 C34.3524046,39.1538149 33.9056451,39.3215589 34.5649083,39.0726619 C35.2279363,38.8200002 35.0752516,38.2971074 34.7949811,37.3282917 C34.5142922,36.3611493 34.4778989,35.4333284 35.1831766,34.7380902 L35.1831766,34.7380902 C35.3149456,34.6197073 35.4462963,34.5029976 35.5709539,34.3791766 C35.5805751,34.3687188 35.5881048,34.3708104 35.5998176,34.3603525 C36.3347956,33.6994161 37.2584334,33.7872621 38.2096798,34.1198218 C39.1600897,34.4519633 39.6729429,34.6360216 39.9624163,33.9884712 C40.2493799,33.345104 40.0544454,33.7834972 40.5250489,32.7398033 C40.5275588,32.7322737 40.5292321,32.7268356 40.5317419,32.7213975 C40.5342518,32.716796 40.5350885,32.7126129 40.5367617,32.7105213 C41.003182,31.6659908 40.8061561,32.1035474 41.0952112,31.4593436 C41.383848,30.8113749 40.9078064,30.5511834 40.0247451,30.0630108 C39.145867,29.5786029 38.4665248,28.9511316 38.4673614,27.9689299 C38.4778192,27.7940746 38.4836756,27.6208925 38.4836756,27.4452005 C38.4861855,27.4259581 38.4941335,27.4171735 38.4949701,27.3962578 C38.5468411,26.4081996 39.26174,25.8187949 40.1703185,25.3829115 C41.0755504,24.9436816 41.5695795,24.7115173 41.318591,24.0480709 C41.0663475,23.390481 41.2357647,23.8372406 40.83,22.7671929 C40.8274901,22.7604999 40.8258168,22.756735 40.8224703,22.7492054 C40.8216337,22.7454405 40.8199604,22.7412574 40.8174505,22.7383292 C40.4087576,21.6695364 40.5794298,22.1188059 40.3292779,21.4574511 C40.0757795,20.7956781 39.5537234,20.9491994 38.5836527,21.228215 C37.6169286,21.5097404 36.6870162,21.5440422 35.9955428,20.8400194 C35.9938695,20.8391827 35.9926146,20.8391827 35.9926146,20.8391827 C35.87465,20.7074138 35.758777,20.5773181 35.6353743,20.4534971 C35.6265897,20.4434575 35.6265897,20.4350912 35.6173868,20.4242151 C34.9547771,19.6900737 35.0426231,18.7660176 35.3760195,17.8147711 C35.7085793,16.8635246 35.8913826,16.3519264 35.2455055,16.061198 C34.6021382,15.7721429 35.037185,15.9679139 33.9960009,15.4998203 C33.986798,15.4973105 33.980105,15.493964 33.9700655,15.4897808 C33.9700655,15.4876892 33.9683922,15.4881076 33.966719,15.4881076 C32.9221884,15.018759 33.3584901,15.2178766 32.7155412,14.9288215 C32.0667359,14.6385114 31.8065444,15.1170629 31.3192084,15.9984509 C30.8373105,16.8760741 30.2081659,17.5554163 29.2268008,17.5554163 C29.0523638,17.5445401 28.8754169,17.5395204 28.697215,17.5399387 C28.6788092,17.5374288 28.6729528,17.5290625 28.6537103,17.5286442 C27.6631423,17.4771916 27.0724827,16.7631292 26.636181,15.8541325 C26.199461,14.9451357 25.9660416,14.4557081 25.303432,14.7062783 C24.6374758,14.9610317 25.1072426,14.7819932 23.9936902,15.2065821 C22.9282439,15.6127652 23.3750035,15.4433479 22.7161586,15.6926632 Z M33.2321592,25.6313902 C34.2009749,28.1684658 32.9276265,31.0096558 30.3905509,31.9772165 C27.8551485,32.944359 25.0135402,31.6722655 24.0463978,29.1364448 C23.0780004,26.5989509 24.3505122,23.7573426 26.8863329,22.7897818 C29.4238268,21.8226394 32.2654351,23.0938963 33.2321592,25.6313902 Z" id="Shape" stroke="#F34D47" fill="#FFCDCC"></path>
                            <path d="M8.68682515,0.264689194 C8.09240068,0.331201151 8.10829662,0.788000254 8.13004896,1.63634144 C8.15263792,2.48175443 7.9869855,3.24308627 7.27208654,3.66223709 C7.13613443,3.73209557 7.00101894,3.80153572 6.86883166,3.87808722 C6.86088369,3.88185205 6.85628223,3.88143373 6.84749763,3.88519856 C6.10749982,4.27088425 5.37419503,4.00483642 4.6689173,3.53088644 C3.96405788,3.05777308 3.58548353,2.79925491 3.21151064,3.26693018 C2.84088426,3.73042231 3.09270941,3.41585003 2.49075528,4.16672402 C2.48489888,4.17467199 2.48113405,4.17927344 2.47402271,4.18805804 C1.87165027,4.94060528 2.12473036,4.62645132 1.75410398,5.08827019 C1.37971277,5.55636377 1.71561907,5.86926279 2.33095926,6.45322941 C2.94086135,7.030503 3.35792061,7.68181821 3.16047631,8.47536024 C3.11111523,8.6217702 3.0688655,8.77069006 3.02912565,8.92086485 C3.02577914,8.93299597 3.0186678,8.93634248 3.01406634,8.95014685 C2.76391445,9.74578045 2.0552902,10.0749937 1.22326327,10.2393912 C0.389981387,10.4029521 -0.059706374,10.4874515 0.00638726896,11.0831309 C0.0716442836,11.6721173 0.0264663504,11.2717906 0.13313647,12.2288935 C0.134391413,12.2385147 0.134809727,12.2443711 0.136901298,12.2565023 C0.243153104,13.2131868 0.197975171,12.8124418 0.263232185,13.4014282 C0.329325828,13.9966893 0.787379873,13.9799567 1.63572106,13.9586227 C2.47904248,13.9356154 3.23911938,14.1012679 3.65952514,14.8144936 C3.72854699,14.9500274 3.7996604,15.0872344 3.87704853,15.2185851 C3.87997672,15.2286246 3.87872178,15.2336444 3.88415987,15.242429 C4.2681723,15.9807535 4.00128784,16.7161499 3.52942943,17.4189177 C3.0571527,18.1250321 2.79905284,18.5027698 3.26379991,18.8775793 C3.73022024,19.2473691 3.41439302,18.9959623 4.16443038,19.598753 C4.17028678,19.6025179 4.17279666,19.6058644 4.17865306,19.6100475 C4.18116295,19.6117208 4.1828362,19.613394 4.18492777,19.6159039 C4.9370567,20.2166031 4.62290274,19.963523 5.08806812,20.3345677 C5.55490677,20.707704 5.86906073,20.3743075 6.4517724,19.7581307 C7.02946431,19.1457187 7.68496265,18.7261496 8.48143288,18.9311236 C8.62407802,18.9771381 8.76881473,19.0193879 8.91480639,19.0574545 C8.9298657,19.0633109 8.93404884,19.0712588 8.94952647,19.0758603 C9.7430685,19.3255939 10.0743733,20.0346364 10.2366792,20.866245 C10.4031683,21.6986903 10.4876678,22.1475414 11.0820922,22.0839577 C11.6723336,22.0166091 11.2711703,22.0622053 12.2286915,21.9576268 C12.2353845,21.9576268 12.2378944,21.9567901 12.2445874,21.9559535 C12.2483522,21.9559535 12.2504438,21.9559535 12.2550452,21.9551169 C13.2121481,21.8471918 12.8101482,21.8898599 13.4012261,21.8254395 C13.994814,21.7585092 13.9818462,21.3008735 13.957584,20.4533689 C13.9337401,19.6050277 14.1006475,18.841186 14.8209845,18.4237084 L14.8209845,18.4237084 C14.9544268,18.3555232 15.0857774,18.2877563 15.2137816,18.2128781 C15.2234028,18.2082766 15.2296775,18.2103682 15.239717,18.2040935 C15.9797148,17.8204994 16.7138563,18.0873838 17.4178791,18.5596606 C18.1239934,19.031519 18.5013128,19.2892005 18.8752857,18.8244534 C19.2450755,18.3597064 18.9940869,18.674697 19.5960411,17.9234047 C19.6014792,17.9179666 19.6027341,17.9150384 19.6081722,17.9100186 C19.6102638,17.9070904 19.6102638,17.9049988 19.6136103,17.9029073 C20.2147278,17.15036 19.9616477,17.4636774 20.3339473,17.0010219 C20.7058286,16.5341832 20.3724322,16.2212842 19.757092,15.636481 C19.1430068,15.0562792 18.7213461,14.4007808 18.9305032,13.6005458 C18.9752628,13.4608288 19.0162576,13.3194386 19.0539059,13.1767935 C19.0597623,13.1613159 19.0681286,13.1571327 19.0731483,13.1383086 C19.3237185,12.3451849 20.0323428,12.0147166 20.8635331,11.8511558 C21.69556,11.6855034 22.1465027,11.6010039 22.081664,11.0074161 C22.0151521,10.4171747 22.0590751,10.8175014 21.9553331,9.86039854 C21.9536599,9.85412383 21.9544965,9.850359 21.9536599,9.84366597 C21.9536599,9.83948283 21.9528233,9.83739126 21.9519866,9.83362643 C21.8448982,8.87568692 21.8884029,9.27810518 21.8227275,8.68702722 C21.7570522,8.09260275 21.2998348,8.10808037 20.450657,8.13108765 C19.6018975,8.15451325 18.8384741,7.98760588 18.4209965,7.26643221 C18.4201599,7.26601389 18.4201599,7.26601389 18.4201599,7.26517727 C18.351138,7.13340829 18.2850444,7.00247595 18.2110028,6.87489012 C18.2068196,6.86526889 18.2076563,6.85857587 18.2017999,6.84811801 C17.8186241,6.10853851 18.0838353,5.3743971 18.5573669,4.66953768 C19.0283887,3.96425994 19.2877435,3.58652223 18.8217415,3.21171271 C18.3574127,2.84150464 18.671985,3.09332979 17.9219477,2.49179397 C17.9139997,2.48593758 17.9110715,2.48259106 17.9035418,2.47798961 C17.9035418,2.47589803 17.9018686,2.47673466 17.9006136,2.47464309 C17.1493213,1.87310728 17.4622204,2.12576905 16.9983099,1.75556099 C16.5314713,1.3815881 16.2194089,1.71582114 15.633769,2.33157964 C15.0552405,2.94566488 14.3997421,3.36439739 13.6011803,3.15691355 C13.4597901,3.11257224 13.3163084,3.07115914 13.1736632,3.03309254 C13.1586039,3.02723615 13.1540025,3.01928818 13.1376882,3.01468672 C12.3424729,2.7636982 12.0120047,2.05591058 11.8488622,1.22304702 C11.6853013,0.390183453 11.5995469,-0.0586676794 11.0055407,0.00617102101 C10.409443,0.072264664 10.8298488,0.0258317882 9.83342436,0.13668505 C8.87632148,0.24335517 9.27706648,0.199850494 8.68682515,0.264689194 Z M15.1568908,10.5882652 C15.408716,12.8601296 13.7705976,14.9065227 11.4995698,15.1587661 C9.22770541,15.4110096 7.18047573,13.7733095 6.92865059,11.5022818 C6.67682544,9.22832579 8.3141072,7.18276937 10.5855533,6.93094422 C12.8582543,6.67786413 14.9038107,8.31472758 15.1568908,10.5882652 Z" id="Shape" stroke="#2F37A1" fill="#C2C7FA"></path>
                        </g>
                    </g>
                </g>
            </g>
        </g>
    </g>
</svg>