<?xml version="1.0" encoding="UTF-8"?>
<svg width="58px" height="52px" viewBox="0 0 58 52" version="1.1" xmlns="http://www.w3.org/2000/svg" xmlns:xlink="http://www.w3.org/1999/xlink">
    <!-- Generator: Sketch 43.2 (39069) - http://www.bohemiancoding.com/sketch -->
    <title>chat_icon</title>
    <desc>Created with Sketch.</desc>
    <defs>
        <filter x="-25.3%" y="-22.7%" width="149.4%" height="149.4%" filterUnits="objectBoundingBox" id="filter-1">
            <feOffset dx="0" dy="2" in="SourceAlpha" result="shadowOffsetOuter1"></feOffset>
            <feGaussianBlur stdDeviation="3.5" in="shadowOffsetOuter1" result="shadowBlurOuter1"></feGaussianBlur>
            <feColorMatrix values="0 0 0 0 0.184313725   0 0 0 0 0.215686275   0 0 0 0 0.631372549  0 0 0 0.304545969 0" type="matrix" in="shadowBlurOuter1" result="shadowMatrixOuter1"></feColorMatrix>
            <feMerge>
                <feMergeNode in="shadowMatrixOuter1"></feMergeNode>
                <feMergeNode in="SourceGraphic"></feMergeNode>
            </feMerge>
        </filter>
    </defs>
    <g id="Page-1" stroke="none" stroke-width="1" fill="none" fill-rule="evenodd">
        <g id="паркоматика-Large-Devices-(-≥-1200px-)-Copy" transform="translate(-748.000000, -3991.000000)">
            <g id="part7" transform="translate(0.000000, 3760.000000)">
                <g id="часть-парковочный-робот" transform="translate(315.000000, 84.000000)">
                    <g id="ill" transform="translate(333.000000, 0.000000)">
                        <g id="chat" filter="url(#filter-1)" transform="translate(91.000000, 133.000000)">
                            <g id="chat_icon" transform="translate(17.011628, 19.697674)">
                                <g id="Group-3" transform="translate(0.000000, 16.314556)" stroke="#F34D47" stroke-width="1.215" fill="#FFCDCC">
                                    <path d="M5.8284992,0.0128216428 L2.89919264,0.0128216428 C1.31335515,0.0128216428 0,1.29690677 0,2.86383638 L0,12.0478783 C0,13.6148079 1.31335515,14.898893 2.89919264,14.898893 L3.67341162,14.898893 L2.92930656,19.0411961 C2.8554789,19.4397715 3.06919054,19.8738825 3.43152891,20.063566 C3.79435298,20.2527693 4.277147,20.181698 4.56857196,19.8964525 L9.71416534,14.898893 L17.0148463,14.898893 C18.6006838,14.898893 19.9140389,13.6148079 19.9140389,12.0478783 L19.9140389,10.5774712 L17.9712059,10.5774712 C17.9712059,10.5774712 9.78451168,11.1347343 7.75556098,9.36946454 C5.72661028,7.60419476 5.8284992,0.0128216428 5.8284992,0.0128216428 Z" id="Fill-1"></path>
                                </g>
                                <path d="M37.8852448,0 L9.71416534,0 C7.57850609,0 5.8284992,1.73020147 5.8284992,3.84169074 L5.8284992,15.614552 L5.8284992,16.3271856 L5.8284992,18.248031 L5.8284992,19.2459102 L5.8284992,23.0501444 C5.8284992,25.1616337 7.57850609,26.8918352 9.71416534,26.8918352 L17.9712059,26.8918352 L17.9712059,26.8918352 L19.9140389,26.8918352 L20.5512882,26.8918352 L23.3139968,26.8918352 L32.7702511,36.2108165 C33.0539047,36.4792546 33.509499,36.5508061 33.8630947,36.3822519 C34.217176,36.2141779 34.4444875,35.8170432 34.4095165,35.430473 L33.5289274,26.8918352 L37.8852448,26.8918352 C40.0209041,26.8918352 41.770911,25.1616337 41.770911,23.0501444 L41.770911,3.84169074 C41.770911,1.73020147 40.0209041,0 37.8852448,0 L37.8852448,0 Z" id="Fill-4" stroke="#2F37A1" stroke-width="1.62" fill="#C2C7FA"></path>
                                <path d="M33.5138704,11.0448609 C32.1728299,11.0448609 31.0853291,12.1200541 31.0853291,13.4459176 C31.0853291,14.7717811 32.1728299,15.8469743 33.5138704,15.8469743 C34.8549109,15.8469743 35.9424117,14.7717811 35.9424117,13.4459176 C35.9424117,12.1200541 34.8549109,11.0448609 33.5138704,11.0448609" id="Fill-6" fill="#2F37A1"></path>
                                <path d="M14.0855397,11.0448609 C12.7444992,11.0448609 11.6569984,12.1200541 11.6569984,13.4459176 C11.6569984,14.7717811 12.7444992,15.8469743 14.0855397,15.8469743 C15.4265803,15.8469743 16.5140811,14.7717811 16.5140811,13.4459176 C16.5140811,12.1200541 15.4265803,11.0448609 14.0855397,11.0448609" id="Fill-8" fill="#2F37A1"></path>
                                <path d="M21.3711637,13.4459176 C21.3711637,14.7717811 22.4586646,15.8469743 23.7997051,15.8469743 C25.1407456,15.8469743 26.2282464,14.7717811 26.2282464,13.4459176 C26.2282464,12.1200541 25.1407456,11.0448609 23.7997051,11.0448609 C22.4586646,11.0448609 21.3711637,12.1200541 21.3711637,13.4459176 Z" id="Fill-10" fill="#2F37A1"></path>
                            </g>
                        </g>
                    </g>
                </g>
            </g>
        </g>
    </g>
</svg>